Zander’s Brainstorming Page
…
borough_dbh

## # A tibble: 683,788 × 40
## # Groups:   borough [5]
##    tree_id block_id tree_dbh stump_diam curb_loc       status health spc_latin  
##      <dbl>    <dbl>    <dbl>      <dbl> <chr>          <chr>  <chr>  <chr>      
##  1  180683   348711        3          0 OnCurb         Alive  Fair   Acer rubrum
##  2  200540   315986       21          0 OnCurb         Alive  Fair   Quercus pa…
##  3  204026   218365        3          0 OnCurb         Alive  Good   Gleditsia …
##  4  204337   217969       10          0 OnCurb         Alive  Good   Gleditsia …
##  5  189565   223043       21          0 OnCurb         Alive  Good   Tilia amer…
##  6  190422   106099       11          0 OnCurb         Alive  Good   Gleditsia …
##  7  190426   106099       11          0 OnCurb         Alive  Good   Gleditsia …
##  8  208649   103940        9          0 OnCurb         Alive  Good   Tilia amer…
##  9  209610   407443        6          0 OnCurb         Alive  Good   Gleditsia …
## 10  192755   207508       21          0 OffsetFromCurb Alive  Fair   Platanus x…
## # ℹ 683,778 more rows
## # ℹ 32 more variables: spc_common <chr>, guards <chr>, sidewalk <chr>,
## #   problems <chr>, root_stone <chr>, root_grate <chr>, root_other <chr>,
## #   trunk_wire <chr>, trnk_light <chr>, trnk_other <chr>, brch_light <chr>,
## #   brch_shoe <chr>, brch_other <chr>, address <chr>, postcode <dbl>,
## #   zip_city <chr>, community_board <dbl>, borocode <dbl>, borough <chr>,
## #   cncldist <dbl>, nta <chr>, nta_name <chr>, boro_ct <dbl>, latitude <dbl>, …
…
